{
  "iisSettings": {
    "windowsAuthentication": false,
    "anonymousAuthentication": true,
    "iisExpress": {
      "applicationUrl": "http://localhost:64384",
      "sslPort": 0
    }
  },
  "$schema": "http://json.schemastore.org/launchsettings.json",
  "profiles": {
    "IIS Express": {
      "commandName": "IISExpress",
      "launchBrowser": true,
      "launchUrl": "swagger",
        "environmentVariables": {
            "ASPNETCORE_ENVIRONMENT": "Development",
            "DB_SERVER": "LAPTOP-0GF33550\\SQLEXPRESS",
            "DB_USERNAME": "sa",
            "DB_PASSWORD": "admin"
        }
    },
    "MovieMicroservice": {
      "commandName": "Project",
      "launchBrowser": true,
      "launchUrl": "swagger",
        "environmentVariables": {
            "ASPNETCORE_ENVIRONMENT": "Development"
},
      "applicationUrl": "http://localhost:5000"
    },
    "Docker": {
      "commandName": "Docker",
      "launchBrowser": true,
      "launchUrl": "{Scheme}://{ServiceHost}:{ServicePort}/swagger",
      "publishAllPorts": true
    }
  }
}